[
  {
    "code": "af-ZA",
    "name": "Afrikaans",
    "plural": "nplurals=2; plural=(n != 1);"
  },
  {
    "code": "ar-AA",
    "name": "Arabic",
    "plural": "nplurals=6; plural=(n==0 ? 0 : n==1 ? 1 : n==2 ? 2 : n%100>=3 && n%100<=10 ? 3 : n%100>=11 ? 4 : 5);"
  },
  {
    "code": "az-AZ",
    "name": "Azerbaijani",
    "plural": "nplurals=2; plural=(n != 1);"
  },
  {
    "code": "be-BY",
    "name": "Belarusian",
    "plural": "nplurals=3; plural=(n%10==1 && n%100!=11 ? 0 : n%10>=2 && n%10<=4 && (n%100<10 || n%100>=20) ? 1 : 2);"
  },
  {
    "code": "bg-BG",
    "name": "Bulgarian",
    "plural": "nplurals=2; plural=(n != 1);"
  },
  {
    "code": "bn-BD",
    "name": "Bengali",
    "plural": "nplurals=2; plural=(n != 1);"
  },
  {
    "code": "bs-BA",
    "name": "Bosnian",
    "plural": "nplurals=3; plural=(n%10==1 && n%100!=11 ? 0 : n%10>=2 && n%10<=4 && (n%100<10 || n%100>=20) ? 1 : 2);"
  },
  {
    "code": "ca-ES",
    "name": "Catalan",
    "plural": "nplurals=2; plural=(n != 1);"
  },
  {
    "code": "cs-CZ",
    "name": "Czech",
    "plural": "nplurals=3; plural=(n==1) ? 0 : (n>=2 && n<=4) ? 1 : 2;"
  },
  {
    "code": "da-DK",
    "name": "Danish",
    "plural": "nplurals=2; plural=(n != 1);"
  },
  {
    "code": "de-DE",
    "name": "German",
    "plural": "nplurals=2; plural=(n != 1);"
  },
  {
    "code": "el-GR",
    "name": "Greek",
    "plural": "nplurals=2; plural=(n != 1);"
  },
  {
    "code": "en-GB",
    "name": "English",
    "plural": "nplurals=2; plural=(n != 1);"
  },
  {
    "code": "eo-XX",
    "name": "Esperanto",
    "plural": "nplurals=2; plural=(n != 1);"
  },
  {
    "code": "es-ES",
    "name": "Spanish",
    "plural": "nplurals=2; plural=(n != 1);"
  },
  {
    "code": "es-MX",
    "name": "Spanish (Mexico)",
    "plural": "nplurals=2; plural=(n != 1);"
  },
  {
    "code": "es-AR",
    "name": "Spanish (Argentina)",
    "plural": "nplurals=2; plural=(n != 1);"
  },
  {
    "code": "et-EE",
    "name": "Estonian",
    "plural": "nplurals=2; plural=(n != 1);"
  },
  {
    "code": "eu-ES",
    "name": "Basque",
    "plural": "nplurals=2; plural=(n != 1);"
  },
  {
    "code": "fa-IR",
    "name": "Persian",
    "plural": "nplurals=1; plural=0;"
  },
  {
    "code": "fi-FI",
    "name": "Finnish",
    "plural": "nplurals=2; plural=(n != 1);"
  },
  {
    "code": "fr-FR",
    "name": "French",
    "plural": "nplurals=2; plural=(n > 1);"
  },
  {
    "code": "gl-ES",
    "name": "Galician",
    "plural": "nplurals=2; plural=(n != 1);"
  },
  {
    "code": "gu-IN",
    "name": "Gujarati",
    "plural": "nplurals=2; plural=(n != 1);"
  },
  {
    "code": "he-IL",
    "name": "Hebrew",
    "plural": "nplurals=2; plural=(n != 1);"
  },
  {
    "code": "hi-IN",
    "name": "Hindi",
    "plural": "nplurals=2; plural=(n != 1);"
  },
  {
    "code": "hr-HR",
    "name": "Croatian",
    "plural": "nplurals=3; plural=(n%10==1 && n%100!=11 ? 0 : n%10>=2 && n%10<=4 && (n%100<10 || n%100>=20) ? 1 : 2);"
  },
  {
    "code": "hu-HU",
    "name": "Hungarian",
    "plural": "nplurals=2; plural=(n != 1);"
  },
  {
    "code": "hy-AM",
    "name": "Armenian",
    "plural": "nplurals=2; plural=(n != 1);"
  },
  {
    "code": "id-ID",
    "name": "Indonesian",
    "plural": "nplurals=1; plural=0;"
  },
  {
    "code": "is-IS",
    "name": "Icelandic",
    "plural": "nplurals=2; plural=(n%10!=1 || n%100==11);"
  },
  {
    "code": "it-IT",
    "name": "Italian",
    "plural": "nplurals=2; plural=(n != 1);"
  },
  {
    "code": "ja-JP",
    "name": "Japanese",
    "plural": "nplurals=1; plural=0;"
  },
  {
    "code": "ka-GE",
    "name": "Georgian",
    "plural": "nplurals=1; plural=0;"
  },
  {
    "code": "kk-KZ",
    "name": "Kazakh",
    "plural": "nplurals=1; plural=0;"
  },
  {
    "code": "km-KH",
    "name": "Khmer",
    "plural": "nplurals=1; plural=0;"
  },
  {
    "code": "ko-KR",
    "name": "Korean",
    "plural": "nplurals=1; plural=0;"
  },
  {
    "code": "ku-IQ",
    "name": "Kurdish",
    "plural": "nplurals=2; plural=(n != 1);"
  },
  {
    "code": "lt-LT",
    "name": "Lithuanian",
    "plural": "nplurals=3; plural=(n%10==1 && n%100!=11 ? 0 : n%10>=2 && (n%100<10 || n%100>=20) ? 1 : 2);"
  },
  {
    "code": "lv-LV",
    "name": "Latvian",
    "plural": "nplurals=3; plural=(n%10==1 && n%100!=11 ? 0 : n != 0 ? 1 : 2);"
  },
  {
    "code": "mk-ML",
    "name": "Macedonian",
    "plural": "nplurals=2; plural= n==1 || n%10==1 ? 0 : 1;"
  },
  {
    "code": "mn-MN",
    "name": "Mongolian",
    "plural": "nplurals=2; plural=(n != 1);"
  },
  {
    "code": "nb-NO",
    "name": "Norwegian Bokmal",
    "plural": "nplurals=2; plural=(n != 1);"
  },
  {
    "code": "nl-NL",
    "name": "Dutch",
    "plural": "nplurals=2; plural=(n != 1);"
  },
  {
    "code": "pl-PL",
    "name": "Polish",
    "plural": "nplurals=3; plural=(n==1 ? 0 : n%10>=2 && n%10<=4 && (n%100<10 || n%100>=20) ? 1 : 2);"
  },
  {
    "code": "pt-PT",
    "name": "Portuguese",
    "plural": "nplurals=2; plural=(n != 1);"
  },
  {
    "code": "pt-BR",
    "name": "Portuguese (Brazil)",
    "plural": "nplurals=2; plural=(n > 1);"
  },
  {
    "code": "ro-RO",
    "name": "Romanian",
    "plural": "nplurals=3; plural=(n==1 ? 0 : (n==0 || (n%100 > 0 && n%100 < 20)) ? 1 : 2);"
  },
  {
    "code": "ru-RU",
    "name": "Russian",
    "plural": "nplurals=3; plural=(n%10==1 && n%100!=11 ? 0 : n%10>=2 && n%10<=4 && (n%100<10 || n%100>=20) ? 1 : 2);"
  },
  {
    "code": "si-LK",
    "name": "Sinhala",
    "plural": "nplurals=2; plural=(n != 1);"
  },
  {
    "code": "sk-SK",
    "name": "Slovak",
    "plural": "nplurals=3; plural=(n==1) ? 0 : (n>=2 && n<=4) ? 1 : 2;"
  },
  {
    "code": "sl-SI",
    "name": "Slovenian",
    "plural": "nplurals=4; plural=(n%100==1 ? 1 : n%100==2 ? 2 : n%100==3 || n%100==4 ? 3 : 0);"
  },
  {
    "code": "sq-AL",
    "name": "Albanian",
    "plural": "nplurals=2; plural=(n != 1);"
  },
  {
    "code": "sr-RS",
    "name": "Serbian",
    "plural": "nplurals=3; plural=(n%10==1 && n%100!=11 ? 0 : n%10>=2 && n%10<=4 && (n%100<10 || n%100>=20) ? 1 : 2);"
  },
  {
    "code": "sr-YU",
    "name": "Serbian",
    "plural": "nplurals=3; plural=(n%10==1 && n%100!=11 ? 0 : n%10>=2 && n%10<=4 && (n%100<10 || n%100>=20) ? 1 : 2);"
  },
  {
    "code": "sv-SE",
    "name": "Swedish",
    "plural": "nplurals=2; plural=(n != 1);"
  },
  {
    "code": "ta-IN",
    "name": "Tamil",
    "plural": "nplurals=2; plural=(n != 1);"
  },
  {
    "code": "te-IN",
    "name": "Telugu",
    "plural": "nplurals=2; plural=(n != 1);"
  },
  {
    "code": "tl-PH",
    "name": "Tagalog",
    "plural": "nplurals=2; plural=(n != 1 && n != 2 && n != 3 && (n % 10 == 4 || n % 10 == 6 || n % 10 == 9);"
  },
  {
    "code": "th-TH",
    "name": "Thai",
    "plural": "nplurals=1; plural=0;"
  },
  {
    "code": "tr-TR",
    "name": "Turkish",
    "plural": "nplurals=2; plural=(n > 1);"
  },
  {
    "code": "uk-UA",
    "name": "Ukrainian",
    "plural": "nplurals=3; plural=(n%10==1 && n%100!=11 ? 0 : n%10>=2 && n%10<=4 && (n%100<10 || n%100>=20) ? 1 : 2);"
  },
  {
    "code": "ur-PK",
    "name": "Urdu",
    "plural": "nplurals=2; plural=(n != 1);"
  },
  {
    "code": "vi-VN",
    "name": "Vietnamese",
    "plural": "nplurals=1; plural=0;"
  },
  {
    "code": "zh-CN",
    "name": "Chinese",
    "plural": "nplurals=1; plural=0;"
  },
  {
    "code": "zh-TW",
    "name": "Chinese (Taiwan)",
    "plural": "nplurals=1; plural=0;"
  }
]